<?xml version="1.0" encoding="utf-8" ?>
<svg xmlns="http://www.w3.org/2000/svg" xmlns:xlink="http://www.w3.org/1999/xlink" width="200" height="228">
	<rect fill="rgb(255,255,255)" fill-opacity="0" stroke="none" transform="translate(0 28)" width="200" height="200"/>
	<defs>
		<linearGradient id="gradient_0" gradientUnits="userSpaceOnUse" x1="86" y1="0" x2="86" y2="117">
			<stop offset="0" stop-color="rgb(169,217,255)"/>
			<stop offset="1" stop-color="rgb(122,197,255)"/>
		</linearGradient>
	</defs>
	<path fill="url(#gradient_0)" stroke="none" transform="translate(13 42)" d="M34.29 37.0386C36.7446 16.1809 54.4827 0 76 0C90.8351 0 103.874 7.69139 111.346 19.304C114.975 18.4511 118.759 18 122.648 18C149.904 18 172 40.1619 172 67.5C172 94.8381 149.904 117 122.648 117L40.0682 117C17.9391 117 0 99.0072 0 76.8119C0 56.5847 14.8988 39.8477 34.29 37.0386L34.29 37.0386Z" fill-rule="evenodd"/>
	<path fill="rgb(168,217,255)" stroke="none" transform="translate(36.2096 182.501)" d="M8.15292 2.76503L0.528959 18.0129C-0.705987 20.4828 0.295135 23.4862 2.76503 24.7211C5.23492 25.9561 8.23828 24.955 9.47323 22.4851L17.0972 7.23716C18.3321 4.76727 17.331 1.76391 14.8611 0.528959C12.3912 -0.705987 9.38786 0.295135 8.15292 2.76503Z"/>
	<path fill="rgb(168,217,255)" stroke="none" transform="translate(86.7117 182.501)" d="M8.15292 2.76503L0.528959 18.0129C-0.705987 20.4828 0.295135 23.4862 2.76503 24.7211C5.23492 25.9561 8.23828 24.955 9.47323 22.4851L17.0972 7.23716C18.3321 4.76727 17.331 1.76391 14.8611 0.528959C12.3912 -0.705987 9.38786 0.295135 8.15292 2.76503Z"/>
	<path fill="rgb(168,217,255)" stroke="none" transform="translate(66.636 171.288)" d="M8.15292 2.76503L0.528959 18.0129C-0.705987 20.4828 0.295135 23.4862 2.76503 24.7211C5.23492 25.9561 8.23828 24.955 9.47323 22.4851L17.0972 7.23716C18.3321 4.76727 17.331 1.76391 14.8611 0.528959C12.3912 -0.705987 9.38786 0.295135 8.15292 2.76503Z"/>
	<path fill="rgb(168,217,255)" stroke="none" transform="translate(117.138 171.288)" d="M8.15292 2.76503L0.528959 18.0129C-0.705987 20.4828 0.295135 23.4862 2.76503 24.7211C5.23492 25.9561 8.23828 24.955 9.47323 22.4851L17.0972 7.23716C18.3321 4.76727 17.331 1.76391 14.8611 0.528959C12.3912 -0.705987 9.38786 0.295135 8.15292 2.76503Z"/>
	<path fill="rgb(168,217,255)" stroke="none" transform="translate(80.9989 140.999)" d="M8.15292 2.76503L0.528959 18.0129C-0.705987 20.4828 0.295135 23.4862 2.76503 24.7211C5.23492 25.9561 8.23828 24.955 9.47323 22.4851L17.0972 7.23716C18.3321 4.76727 17.331 1.76391 14.8611 0.528959C12.3912 -0.705987 9.38786 0.295135 8.15292 2.76503Z"/>
	<path fill="rgb(168,217,255)" stroke="none" transform="translate(131.999 140.999)" d="M8.15292 2.76503L0.528959 18.0129C-0.705987 20.4828 0.295135 23.4862 2.76503 24.7211C5.23492 25.9561 8.23828 24.955 9.47323 22.4851L17.0972 7.23716C18.3321 4.76727 17.331 1.76391 14.8611 0.528959C12.3912 -0.705987 9.38786 0.295135 8.15292 2.76503Z"/>
	<path fill="rgb(168,217,255)" stroke="none" transform="translate(100.999 151.999)" d="M8.15292 2.76503L0.528959 18.0129C-0.705987 20.4828 0.295135 23.4862 2.76503 24.7211C5.23492 25.9561 8.23828 24.955 9.47323 22.4851L17.0972 7.23716C18.3321 4.76727 17.331 1.76391 14.8611 0.528959C12.3912 -0.705987 9.38786 0.295135 8.15292 2.76503Z"/>
	<path fill="rgb(168,217,255)" stroke="none" transform="translate(50.9989 151.999)" d="M8.15292 2.76503L0.528959 18.0129C-0.705987 20.4828 0.295135 23.4862 2.76503 24.7211C5.23492 25.9561 8.23828 24.955 9.47323 22.4851L17.0972 7.23716C18.3321 4.76727 17.331 1.76391 14.8611 0.528959C12.3912 -0.705987 9.38786 0.295135 8.15292 2.76503Z"/>

</svg>